[
  {
    "line": 1,
    "elements": [
      {
        "line": 15,
        "name": "validate odds and returns offered for a football match",
        "description": "",
        "id": "validate-odds-and-returns-offered;validate-odds-and-returns-offered-for-a-football-match;;2",
        "type": "scenario",
        "keyword": "Scenario Outline",
        "steps": [
          {
            "result": {
              "duration": 504895,
              "status": "skipped"
            },
            "line": 7,
            "name": "I am WH customer on William Hill website",
            "match": {
              "location": "WilliamHillHomePage.i_am_WH_customer_on_William_Hill_website()"
            },
            "keyword": "Given "
          },
          {
            "result": {
              "duration": 9079,
              "status": "skipped"
            },
            "line": 8,
            "name": "I choose Football event",
            "match": {
              "location": "WilliamHillHomePage.i_choose_Football_event()"
            },
            "keyword": "And "
          },
          {
            "result": {
              "duration": 4342,
              "status": "skipped"
            },
            "line": 9,
            "name": "I enter \"0.05\" bet amount on home team to win a match",
            "match": {
              "arguments": [
                {
                  "val": "\"0.05\"",
                  "offset": 8
                }
              ],
              "location": "WilliamHillHomePage.i_enter_bet_amount_on_home_team_to_win_a_match(String)"
            },
            "keyword": "When "
          },
          {
            "result": {
              "duration": 3947,
              "status": "skipped"
            },
            "line": 10,
            "name": "I am displayed with correct odds and returns offered",
            "match": {
              "location": "WilliamHillHomePage.i_am_displayed_with_correct_odds_and_returns_offered()"
            },
            "keyword": "Then "
          }
        ],
        "tags": [
          {
            "name": "@hook"
          }
        ]
      }
    ],
    "name": "validate odds and returns offered",
    "description": "",
    "id": "validate-odds-and-returns-offered",
    "keyword": "Feature",
    "uri": "file:/C:/Framework/AutomationFramework/src/test/resources/Features/Bet.feature",
    "tags": []
  }
]